ST558 Homework 9
…
→ A | warning: prediction from rank-deficient fit; consider predict(., rankdeficient="NA")

collect_metrics(best_fit)

# A tibble: 2 × 4
  .metric .estimator .estimate .config             
  <chr>   <chr>          <dbl> <chr>               
1 rmse    standard    2882.    Preprocessor1_Model1
2 rsq     standard       0.925 Preprocessor1_Model1

best_fit |>
  extract_fit_parsnip() |>
  tidy()

# A tibble: 29 × 5
   term                               estimate std.error statistic   p.value
   <chr>                                 <dbl>     <dbl>     <dbl>     <dbl>
 1 (Intercept)                          15588.     1664.     9.37   6.20e-18
 2 season_Spring                         1846.     2635.     0.701  4.84e- 1
 3 season_Summer                        14601.     2255.     6.47   5.46e-10
 4 season_Winter                        -6588.     2795.    -2.36   1.93e- 2
 5 holiday_No.Holiday                    5917.     1518.     3.90   1.26e- 4
 6 day_type_weekend                     -2217.      401.    -5.52   8.80e- 8
 7 season_Spring_x_holiday_No.Holiday   -6202.     2662.    -2.33   2.06e- 2
 8 season_Summer_x_holiday_No.Holiday      NA        NA     NA     NA       
 9 season_Winter_x_holiday_No.Holiday   -5051.     2047.    -2.47   1.43e- 2
10 temp_x_rainfall                      -1533.      466.    -3.29   1.15e- 3
# ℹ 19 more rows
…
# A tibble: 2 × 4
  .metric .estimator .estimate .config             
  <chr>   <chr>          <dbl> <chr>               
1 rmse    standard       2925. Preprocessor1_Model1
2 mae     standard       2212. Preprocessor1_Model1

## coefficient tables
best_fit |>
  extract_fit_parsnip() |>
  tidy()

# A tibble: 29 × 5
   term                               estimate std.error statistic   p.value
   <chr>                                 <dbl>     <dbl>     <dbl>     <dbl>
 1 (Intercept)                          15588.     1664.     9.37   6.20e-18
 2 season_Spring                         1846.     2635.     0.701  4.84e- 1
 3 season_Summer                        14601.     2255.     6.47   5.46e-10
 4 season_Winter                        -6588.     2795.    -2.36   1.93e- 2
 5 holiday_No.Holiday                    5917.     1518.     3.90   1.26e- 4
 6 day_type_weekend                     -2217.      401.    -5.52   8.80e- 8
 7 season_Spring_x_holiday_No.Holiday   -6202.     2662.    -2.33   2.06e- 2
 8 season_Summer_x_holiday_No.Holiday      NA        NA     NA     NA       
 9 season_Winter_x_holiday_No.Holiday   -5051.     2047.    -2.47   1.43e- 2
10 temp_x_rainfall                      -1533.      466.    -3.29   1.15e- 3
# ℹ 19 more rows
…
## fit best overall model to entire data set
final_best_fit <- bike_wfl_3 |>
  fit(sum_data)
tidy(final_best_fit)

# A tibble: 29 × 5
   term                               estimate std.error statistic  p.value
   <chr>                                 <dbl>     <dbl>     <dbl>    <dbl>
 1 (Intercept)                          16237.     1569.    10.4   6.95e-22
 2 season_Spring                        -1666.     2241.    -0.743 4.58e- 1
 3 season_Summer                        17336.     2970.     5.84  1.30e- 8
 4 season_Winter                        -7836.     2437.    -3.21  1.44e- 3
 5 holiday_No.Holiday                    5545.     1457.     3.81  1.69e- 4
 6 day_type_weekend                     -2399.      336.    -7.14  6.24e-12
 7 season_Spring_x_holiday_No.Holiday   -2822.     2277.    -1.24  2.16e- 1
 8 season_Summer_x_holiday_No.Holiday   -1854.     2462.    -0.753 4.52e- 1
 9 season_Winter_x_holiday_No.Holiday   -3265.     1798.    -1.82  7.04e- 2
10 temp_x_rainfall                      -1527.      436.    -3.50  5.29e- 4
# ℹ 19 more rows
